<?xml version="1.0" encoding="utf-8"?>
<!--/12827571/177097/2.50/4/2/Connector/-->
<!DOCTYPE curve SYSTEM "eagle.dtd">
<eagle version="7.7.0">
<drawing>
<settings>
<setting alwaysvectorfont="no"/>
<setting verticaltext="up"/>
</settings>
<grid distance="0.1" unitdist="inch" unit="inch" style="lines" multiple="1" display="no" altdistance="0.01" altunitdist="inch" altunit="inch"/>
<layers>
<layer number="1" name="Top" color="4" fill="1" visible="yes" active="yes"/>
<layer number="16" name="Bottom" color="1" fill="1" visible="yes" active="yes"/>
<layer number="17" name="Pads" color="2" fill="1" visible="yes" active="yes"/>
<layer number="18" name="Vias" color="2" fill="1" visible="yes" active="yes"/>
<layer number="19" name="Unrouted" color="6" fill="1" visible="yes" active="yes"/>
<layer number="20" name="Dimension" color="15" fill="1" visible="yes" active="yes"/>
<layer number="21" name="tPlace" color="7" fill="1" visible="yes" active="yes"/>
<layer number="22" name="bPlace" color="7" fill="1" visible="yes" active="yes"/>
<layer number="23" name="tOrigins" color="15" fill="1" visible="yes" active="yes"/>
<layer number="24" name="bOrigins" color="15" fill="1" visible="yes" active="yes"/>
<layer number="25" name="tNames" color="7" fill="1" visible="yes" active="yes"/>
<layer number="26" name="bNames" color="7" fill="1" visible="yes" active="yes"/>
<layer number="27" name="tValues" color="7" fill="1" visible="yes" active="yes"/>
<layer number="28" name="bValues" color="7" fill="1" visible="yes" active="yes"/>
<layer number="29" name="tStop" color="7" fill="3" visible="no" active="yes"/>
<layer number="30" name="bStop" color="7" fill="6" visible="no" active="yes"/>
<layer number="31" name="tCream" color="7" fill="4" visible="no" active="yes"/>
<layer number="32" name="bCream" color="7" fill="5" visible="no" active="yes"/>
<layer number="33" name="tFinish" color="6" fill="3" visible="no" active="yes"/>
<layer number="34" name="bFinish" color="6" fill="6" visible="no" active="yes"/>
<layer number="35" name="tGlue" color="7" fill="4" visible="no" active="yes"/>
<layer number="36" name="bGlue" color="7" fill="5" visible="no" active="yes"/>
<layer number="37" name="tTest" color="7" fill="1" visible="no" active="yes"/>
<layer number="38" name="bTest" color="7" fill="1" visible="no" active="yes"/>
<layer number="39" name="tKeepout" color="4" fill="11" visible="yes" active="yes"/>
<layer number="40" name="bKeepout" color="1" fill="11" visible="yes" active="yes"/>
<layer number="41" name="tRestrict" color="4" fill="10" visible="yes" active="yes"/>
<layer number="42" name="bRestrict" color="1" fill="10" visible="yes" active="yes"/>
<layer number="43" name="vRestrict" color="2" fill="10" visible="yes" active="yes"/>
<layer number="44" name="Drills" color="7" fill="1" visible="no" active="yes"/>
<layer number="45" name="Holes" color="7" fill="1" visible="no" active="yes"/>
<layer number="46" name="Milling" color="3" fill="1" visible="no" active="yes"/>
<layer number="47" name="Measures" color="7" fill="1" visible="no" active="yes"/>
<layer number="48" name="Document" color="7" fill="1" visible="yes" active="yes"/>
<layer number="49" name="Reference" color="7" fill="1" visible="yes" active="yes"/>
<layer number="51" name="tDocu" color="7" fill="1" visible="yes" active="yes"/>
<layer number="52" name="bDocu" color="7" fill="1" visible="yes" active="yes"/>
<layer number="90" name="Modules" color="5" fill="1" visible="yes" active="yes"/>
<layer number="91" name="Nets" color="2" fill="1" visible="yes" active="yes"/>
<layer number="92" name="Busses" color="1" fill="1" visible="yes" active="yes"/>
<layer number="93" name="Pins" color="2" fill="1" visible="no" active="yes"/>
<layer number="94" name="Symbols" color="4" fill="1" visible="yes" active="yes"/>
<layer number="95" name="Names" color="7" fill="1" visible="yes" active="yes"/>
<layer number="96" name="Values" color="7" fill="1" visible="yes" active="yes"/>
<layer number="97" name="Info" color="7" fill="1" visible="yes" active="yes"/>
<layer number="98" name="Guide" color="6" fill="1" visible="yes" active="yes"/>
</layers>
<library>
<description>&lt;Mini-Fit Jr. Vertical Header, 4.20mm Pitch, Dual Row, 4 Circuits, without Snap-in Plastic Peg PCB Lock, Tin, Natural&lt;/b&gt;&lt;p&gt;
&lt;author&gt;Created by SamacSys&lt;/author&gt;</description>
<packages>
<package name="39-28-1043">
<description>&lt;b&gt;39-28-1043&lt;/b&gt;&lt;br&gt;
</description>
<pad name="1" x="0" y="0" drill="1.4" diameter="1.75" shape="square"/>
<pad name="2" x="4.2" y="0" drill="1.4" diameter="1.75"/>
<pad name="3" x="0" y="-5.5" drill="1.4" diameter="1.75"/>
<pad name="4" x="4.2" y="-5.5" drill="1.4" diameter="1.75"/>
<text x="0" y="0" align="center" size="1.27" layer="25" rot="R0" >&gt;NAME</text>
<text x="0" y="0" align="center" size="1.27" layer="27" rot="R0" >&gt;VALUE</text>
<wire x1="-2.7" y1="2.25" x2="6.9" y2="2.25" width="0.127" layer="51"/>
<wire x1="6.9" y1="2.25" x2="6.9" y2="-7.35" width="0.127" layer="51"/>
<wire x1="6.9" y1="-7.35" x2="-2.7" y2="-7.35" width="0.127" layer="51"/>
<wire x1="-2.7" y1="-7.35" x2="-2.7" y2="2.25" width="0.127" layer="51"/>
<wire x1="-2.7" y1="2.25" x2="6.9" y2="2.25" width="0.127" layer="21"/>
<wire x1="6.9" y1="2.25" x2="6.9" y2="-7.35" width="0.127" layer="21"/>
<wire x1="6.9" y1="-7.35" x2="-2.7" y2="-7.35" width="0.127" layer="21"/>
<wire x1="-2.7" y1="-7.35" x2="-2.7" y2="2.25" width="0.127" layer="21"/>
<wire x1="-4.1" y1="-0.5" x2="-4.1" y2="0.5" width="0.127" layer="21"/>
<wire x1="-4.1" y1="0.5" x2="-3.1" y2="0" width="0.127" layer="21"/>
<wire x1="-3.1" y1="0" x2="-4.1" y2="-0.5" width="0.127" layer="21"/>
<wire x1="-4.1" y1="-0.5" x2="-4.1" y2="0.5" width="0.127" layer="51"/>
<wire x1="-4.1" y1="0.5" x2="-3.1" y2="0" width="0.127" layer="51"/>
<wire x1="-3.1" y1="0" x2="-4.1" y2="-0.5" width="0.127" layer="51"/>
<wire x1="-3.97" y1="3.52" x2="8.17" y2="3.52" width="0.05" layer="51"/>
<wire x1="8.17" y1="3.52" x2="8.17" y2="-8.62" width="0.05" layer="51"/>
<wire x1="8.17" y1="-8.62" x2="-3.97" y2="-8.62" width="0.05" layer="51"/>
<wire x1="-3.97" y1="-8.62" x2="-3.97" y2="3.52" width="0.05" layer="51"/>
</package>
</packages>
<symbols>
<symbol name="39-28-1043">
<wire x1="5.08" y1="2.54" x2="15.24" y2="2.54" width="0.254" layer="94"/>
<wire x1="15.24" y1="-5.08" x2="15.24" y2="2.54" width="0.254" layer="94"/>
<wire x1="15.24" y1="-5.08" x2="5.08" y2="-5.08" width="0.254" layer="94"/>
<wire x1="5.08" y1="2.54" x2="5.08" y2="-5.08" width="0.254" layer="94"/>
<text x="16.51" y="7.62" align="center-left" size="1.778" layer="95">&gt;NAME</text>
<text x="16.51" y="5.08" align="center-left" size="1.778" layer="96">&gt;VALUE</text>
<pin name="1" x="0" y="0" length="middle" direction="io" rot="R0"/>
<pin name="2" x="20.32" y="0" length="middle" direction="io" rot="R180"/>
<pin name="3" x="0" y="-2.54" length="middle" direction="io" rot="R0"/>
<pin name="4" x="20.32" y="-2.54" length="middle" direction="io" rot="R180"/>
</symbol>
</symbols>
<devicesets>
<deviceset name="39-28-1043" prefix="J">
<description>&lt;b&gt;Mini-Fit Jr. Vertical Header, 4.20mm Pitch, Dual Row, 4 Circuits, without Snap-in Plastic Peg PCB Lock, Tin, Natural&lt;/b&gt;&lt;p&gt;
Source: &lt;a href="https://www.molex.com/pdm_docs/sd/039281023_sd.pdf"&gt; Datasheet &lt;/a&gt;</description>
<gates>
<gate name="G$1" symbol="39-28-1043" x="0" y="0"/>
</gates>
<devices>
<device name="" package="39-28-1043">
<connects>
<connect gate="G$1" pin="1" pad="1"/>
<connect gate="G$1" pin="2" pad="2"/>
<connect gate="G$1" pin="3" pad="3"/>
<connect gate="G$1" pin="4" pad="4"/>
</connects>
<technologies>
<technology name="">
<attribute name="Manufacturer_Name" value="Molex" constant="no"/>
<attribute name="Manufacturer_Part_Number" value="39-28-1043" constant="no"/>
<attribute name="Mouser_Part_Number" value="538-39-28-1043" constant="no"/>
<attribute name="Mouser_Price-Stock" value="https://www.mouser.co.uk/ProductDetail/Molex/39-28-1043?qs=LQQHZ4xw2XCMHoV0KRLGhg%3D%3D" constant="no"/>
<attribute name="Arrow_Part_Number" value="39-28-1043" constant="no"/>
<attribute name="Arrow_Price-Stock" value="https://www.arrow.com/en/products/39-28-1043/molex?region=nac" constant="no"/>
<attribute name="Description" value="Mini-Fit Jr. Vertical Header, 4.20mm Pitch, Dual Row, 4 Circuits, without Snap-in Plastic Peg PCB Lock, Tin, Natural" constant="no"/>
<attribute name="Height" value="12.8mm" constant="no"/>
</technology>
</technologies>
</device>
</devices>
</deviceset>
</devicesets>
</library>
</drawing>
</eagle>
