PCBNEW-LibModule-V1  2024-06-14 14:45:41
# encoding utf-8
Units mm
$INDEX
1000-SERIES(SPDT)
$EndINDEX
$MODULE 1000-SERIES(SPDT)
Po 0 0 0 15 666c4985 00000000 ~~
Li 1000-SERIES(SPDT)
Cd 1000-Series(SPDT)
Kw Switch
Sc 0
At STD
AR 
Op 0 0 0
T0 -0.383 -0.013 1.27 1.27 0 0.254 N V 21 N "S**"
T1 -0.383 -0.013 1.27 1.27 0 0.254 N I 21 N "1000-SERIES(SPDT)"
DS -3.3 -6.35 3.3 -6.35 0.254 24
DS 3.3 -6.35 3.3 6.35 0.254 24
DS 3.3 6.35 -3.3 6.35 0.254 24
DS -3.3 6.35 -3.3 -6.35 0.254 24
DS -3.3 6.35 -3.3 -6.35 0.254 21
DS -3.3 -6.35 3.3 -6.35 0.254 21
DS 3.3 -6.35 3.3 6.35 0.254 21
DS 3.3 6.35 -3.3 6.35 0.254 21
DC -0.109 7.714 -0.273 7.714 0.254 21
$PAD
Po 0 4.7
Sh "1" C 2.48 2.48 0 0 900
Dr 1.68 0 0
At STD N 00E0FFFF
Ne 0 ""
$EndPAD
$PAD
Po 0 0
Sh "2" C 2.48 2.48 0 0 900
Dr 1.68 0 0
At STD N 00E0FFFF
Ne 0 ""
$EndPAD
$PAD
Po 0 -4.7
Sh "3" C 2.48 2.48 0 0 900
Dr 1.68 0 0
At STD N 00E0FFFF
Ne 0 ""
$EndPAD
$EndMODULE 1000-SERIES(SPDT)
$EndLIBRARY
