PCBNEW-LibModule-V1  2024-05-10 13:06:31
# encoding utf-8
Units mm
$INDEX
39-28-1043
$EndINDEX
$MODULE 39-28-1043
Po 0 0 0 15 663e0dc7 00000000 ~~
Li 39-28-1043
Cd 39-28-1043
Kw Connector
Sc 0
At STD
AR 
Op 0 0 0
T0 0 0 1.27 1.27 0 0.254 N V 21 N "J**"
T1 0 0 1.27 1.27 0 0.254 N I 21 N "39-28-1043"
DS -2.7 -2.25 6.9 -2.25 0.127 24
DS 6.9 -2.25 6.9 7.35 0.127 24
DS 6.9 7.35 -2.7 7.35 0.127 24
DS -2.7 7.35 -2.7 -2.25 0.127 24
DS -2.7 -2.25 6.9 -2.25 0.127 21
DS 6.9 -2.25 6.9 7.35 0.127 21
DS 6.9 7.35 -2.7 7.35 0.127 21
DS -2.7 7.35 -2.7 -2.25 0.127 21
DS -4.1 0.5 -4.1 -0.5 0.127 21
DS -4.1 -0.5 -3.1 0 0.127 21
DS -3.1 0 -4.1 0.5 0.127 21
DS -4.1 0.5 -4.1 -0.5 0.127 24
DS -4.1 -0.5 -3.1 0 0.127 24
DS -3.1 0 -4.1 0.5 0.127 24
DS -3.97 -3.52 8.17 -3.52 0.05 24
DS 8.17 -3.52 8.17 8.62 0.05 24
DS 8.17 8.62 -3.97 8.62 0.05 24
DS -3.97 8.62 -3.97 -3.52 0.05 24
$PAD
Po 0 0
Sh "1" R 1.75 1.75 0 0 900
Dr 1.4 0 0
At STD N 00E0FFFF
Ne 0 ""
$EndPAD
$PAD
Po 4.2 0
Sh "2" C 1.75 1.75 0 0 900
Dr 1.4 0 0
At STD N 00E0FFFF
Ne 0 ""
$EndPAD
$PAD
Po 0 5.5
Sh "3" C 1.75 1.75 0 0 900
Dr 1.4 0 0
At STD N 00E0FFFF
Ne 0 ""
$EndPAD
$PAD
Po 4.2 5.5
Sh "4" C 1.75 1.75 0 0 900
Dr 1.4 0 0
At STD N 00E0FFFF
Ne 0 ""
$EndPAD
$EndMODULE 39-28-1043
$EndLIBRARY
