<?xml version="1.0" encoding="utf-8"?>
<!--/15795173/177097/2.50/16/2/Switch/-->
<!DOCTYPE curve SYSTEM "eagle.dtd">
<eagle version="7.7.0">
<drawing>
<settings>
<setting alwaysvectorfont="no"/>
<setting verticaltext="up"/>
</settings>
<grid distance="0.1" unitdist="inch" unit="inch" style="lines" multiple="1" display="no" altdistance="0.01" altunitdist="inch" altunit="inch"/>
<layers>
<layer number="1" name="Top" color="4" fill="1" visible="yes" active="yes"/>
<layer number="16" name="Bottom" color="1" fill="1" visible="yes" active="yes"/>
<layer number="17" name="Pads" color="2" fill="1" visible="yes" active="yes"/>
<layer number="18" name="Vias" color="2" fill="1" visible="yes" active="yes"/>
<layer number="19" name="Unrouted" color="6" fill="1" visible="yes" active="yes"/>
<layer number="20" name="Dimension" color="15" fill="1" visible="yes" active="yes"/>
<layer number="21" name="tPlace" color="7" fill="1" visible="yes" active="yes"/>
<layer number="22" name="bPlace" color="7" fill="1" visible="yes" active="yes"/>
<layer number="23" name="tOrigins" color="15" fill="1" visible="yes" active="yes"/>
<layer number="24" name="bOrigins" color="15" fill="1" visible="yes" active="yes"/>
<layer number="25" name="tNames" color="7" fill="1" visible="yes" active="yes"/>
<layer number="26" name="bNames" color="7" fill="1" visible="yes" active="yes"/>
<layer number="27" name="tValues" color="7" fill="1" visible="yes" active="yes"/>
<layer number="28" name="bValues" color="7" fill="1" visible="yes" active="yes"/>
<layer number="29" name="tStop" color="7" fill="3" visible="no" active="yes"/>
<layer number="30" name="bStop" color="7" fill="6" visible="no" active="yes"/>
<layer number="31" name="tCream" color="7" fill="4" visible="no" active="yes"/>
<layer number="32" name="bCream" color="7" fill="5" visible="no" active="yes"/>
<layer number="33" name="tFinish" color="6" fill="3" visible="no" active="yes"/>
<layer number="34" name="bFinish" color="6" fill="6" visible="no" active="yes"/>
<layer number="35" name="tGlue" color="7" fill="4" visible="no" active="yes"/>
<layer number="36" name="bGlue" color="7" fill="5" visible="no" active="yes"/>
<layer number="37" name="tTest" color="7" fill="1" visible="no" active="yes"/>
<layer number="38" name="bTest" color="7" fill="1" visible="no" active="yes"/>
<layer number="39" name="tKeepout" color="4" fill="11" visible="yes" active="yes"/>
<layer number="40" name="bKeepout" color="1" fill="11" visible="yes" active="yes"/>
<layer number="41" name="tRestrict" color="4" fill="10" visible="yes" active="yes"/>
<layer number="42" name="bRestrict" color="1" fill="10" visible="yes" active="yes"/>
<layer number="43" name="vRestrict" color="2" fill="10" visible="yes" active="yes"/>
<layer number="44" name="Drills" color="7" fill="1" visible="no" active="yes"/>
<layer number="45" name="Holes" color="7" fill="1" visible="no" active="yes"/>
<layer number="46" name="Milling" color="3" fill="1" visible="no" active="yes"/>
<layer number="47" name="Measures" color="7" fill="1" visible="no" active="yes"/>
<layer number="48" name="Document" color="7" fill="1" visible="yes" active="yes"/>
<layer number="49" name="Reference" color="7" fill="1" visible="yes" active="yes"/>
<layer number="51" name="tDocu" color="7" fill="1" visible="yes" active="yes"/>
<layer number="52" name="bDocu" color="7" fill="1" visible="yes" active="yes"/>
<layer number="90" name="Modules" color="5" fill="1" visible="yes" active="yes"/>
<layer number="91" name="Nets" color="2" fill="1" visible="yes" active="yes"/>
<layer number="92" name="Busses" color="1" fill="1" visible="yes" active="yes"/>
<layer number="93" name="Pins" color="2" fill="1" visible="no" active="yes"/>
<layer number="94" name="Symbols" color="4" fill="1" visible="yes" active="yes"/>
<layer number="95" name="Names" color="7" fill="1" visible="yes" active="yes"/>
<layer number="96" name="Values" color="7" fill="1" visible="yes" active="yes"/>
<layer number="97" name="Info" color="7" fill="1" visible="yes" active="yes"/>
<layer number="98" name="Guide" color="6" fill="1" visible="yes" active="yes"/>
</layers>
<library>
<description>&lt;Body Features: Case Material Polyphenylene Sulfide (PPS) | Case Color Black | Actuator Color White | Product Orientation Vertical | Configuration Features: Configuration (Pole-Throw) Single Pole - Single Throw | Number of Positions 8 | Number of Switches 8 | Contact Features: Contact Current Rating 1 AMP | PCB Contact Termination Area Plating Material Gold | Contact Underplating Material Nickel | Contact Base Material Copper Alloy | Switch Contact Plating Material Gold Flash | Switch Contact Plating Materia&lt;/b&gt;&lt;p&gt;
&lt;author&gt;Created by SamacSys&lt;/author&gt;</description>
<packages>
<package name="18250577">
<description>&lt;b&gt;1825057-7-2&lt;/b&gt;&lt;br&gt;
</description>
<pad name="A1" x="0.000" y="0.000" drill="0.79" diameter="1.354" shape="square"/>
<pad name="A2" x="0.000" y="-2.540" drill="0.79" diameter="1.354"/>
<pad name="A3" x="0.000" y="-5.080" drill="0.79" diameter="1.354"/>
<pad name="A4" x="0.000" y="-7.620" drill="0.79" diameter="1.354"/>
<pad name="A5" x="0.000" y="-10.160" drill="0.79" diameter="1.354"/>
<pad name="A6" x="0.000" y="-12.700" drill="0.79" diameter="1.354"/>
<pad name="A7" x="0.000" y="-15.240" drill="0.79" diameter="1.354"/>
<pad name="A8" x="0.000" y="-17.780" drill="0.79" diameter="1.354"/>
<pad name="B1" x="7.620" y="0.000" drill="0.79" diameter="1.354"/>
<pad name="B2" x="7.620" y="-2.540" drill="0.79" diameter="1.354"/>
<pad name="B3" x="7.620" y="-5.080" drill="0.79" diameter="1.354"/>
<pad name="B4" x="7.620" y="-7.620" drill="0.79" diameter="1.354"/>
<pad name="B5" x="7.620" y="-10.160" drill="0.79" diameter="1.354"/>
<pad name="B6" x="7.620" y="-12.700" drill="0.79" diameter="1.354"/>
<pad name="B7" x="7.620" y="-15.240" drill="0.79" diameter="1.354"/>
<pad name="B8" x="7.620" y="-17.780" drill="0.79" diameter="1.354"/>
<text x="3.810" y="-8.890" align="center" size="1.27" layer="25" rot="R0" >&gt;NAME</text>
<text x="3.810" y="-8.890" align="center" size="1.27" layer="27" rot="R0" >&gt;VALUE</text>
<wire x1="0.06" y1="-20.04" x2="7.56" y2="-20.04" width="0.1" layer="51"/>
<wire x1="7.56" y1="-20.04" x2="7.56" y2="2.26" width="0.1" layer="51"/>
<wire x1="7.56" y1="2.26" x2="0.06" y2="2.26" width="0.1" layer="51"/>
<wire x1="0.06" y1="2.26" x2="0.06" y2="-20.04" width="0.1" layer="51"/>
<wire x1="-1.677" y1="-21.04" x2="9.297" y2="-21.04" width="0.1" layer="51"/>
<wire x1="9.297" y1="-21.04" x2="9.297" y2="3.26" width="0.1" layer="51"/>
<wire x1="9.297" y1="3.26" x2="-1.677" y2="3.26" width="0.1" layer="51"/>
<wire x1="-1.677" y1="3.26" x2="-1.677" y2="-21.04" width="0.1" layer="51"/>
<wire x1="0.06" y1="1.11" x2="0.06" y2="2.26" width="0.2" layer="21"/>
<wire x1="0.06" y1="2.26" x2="7.56" y2="2.26" width="0.2" layer="21"/>
<wire x1="7.56" y1="2.26" x2="7.56" y2="1.31" width="0.2" layer="21"/>
<wire x1="0.06" y1="-18.89" x2="0.06" y2="-20.04" width="0.2" layer="21"/>
<wire x1="0.06" y1="-20.04" x2="7.56" y2="-20.04" width="0.2" layer="21"/>
<wire x1="7.56" y1="-20.04" x2="7.56" y2="-19.09" width="0.2" layer="21"/>
<wire x1="-1.19" y1="0.11" x2="-1.19" y2="0.11" width="0.1" layer="21"/>
<wire x1="-1.190" y1="0.110" x2="-1.090" y2="0.110" width="0.1" layer="21" curve="180.0"/>
<wire x1="-1.09" y1="0.11" x2="-1.09" y2="0.11" width="0.1" layer="21"/>
<wire x1="-1.090" y1="0.110" x2="-1.190" y2="0.110" width="0.1" layer="21" curve="180.0"/>
</package>
</packages>
<symbols>
<symbol name="1825057-7">
<wire x1="5.08" y1="2.54" x2="17.78" y2="2.54" width="0.254" layer="94"/>
<wire x1="17.78" y1="-20.32" x2="17.78" y2="2.54" width="0.254" layer="94"/>
<wire x1="17.78" y1="-20.32" x2="5.08" y2="-20.32" width="0.254" layer="94"/>
<wire x1="5.08" y1="2.54" x2="5.08" y2="-20.32" width="0.254" layer="94"/>
<text x="19.05" y="7.62" align="center-left" size="1.778" layer="95">&gt;NAME</text>
<text x="19.05" y="5.08" align="center-left" size="1.778" layer="96">&gt;VALUE</text>
<pin name="A1" x="0" y="0" length="middle" direction="io" rot="R0"/>
<pin name="A2" x="0" y="-2.54" length="middle" direction="io" rot="R0"/>
<pin name="A3" x="0" y="-5.08" length="middle" direction="io" rot="R0"/>
<pin name="A4" x="0" y="-7.62" length="middle" direction="io" rot="R0"/>
<pin name="A5" x="0" y="-10.16" length="middle" direction="io" rot="R0"/>
<pin name="A6" x="0" y="-12.7" length="middle" direction="io" rot="R0"/>
<pin name="A7" x="0" y="-15.24" length="middle" direction="io" rot="R0"/>
<pin name="A8" x="0" y="-17.78" length="middle" direction="io" rot="R0"/>
<pin name="B1" x="22.86" y="0" length="middle" direction="io" rot="R180"/>
<pin name="B2" x="22.86" y="-2.54" length="middle" direction="io" rot="R180"/>
<pin name="B3" x="22.86" y="-5.08" length="middle" direction="io" rot="R180"/>
<pin name="B4" x="22.86" y="-7.62" length="middle" direction="io" rot="R180"/>
<pin name="B5" x="22.86" y="-10.16" length="middle" direction="io" rot="R180"/>
<pin name="B6" x="22.86" y="-12.7" length="middle" direction="io" rot="R180"/>
<pin name="B7" x="22.86" y="-15.24" length="middle" direction="io" rot="R180"/>
<pin name="B8" x="22.86" y="-17.78" length="middle" direction="io" rot="R180"/>
</symbol>
</symbols>
<devicesets>
<deviceset name="1825057-7" prefix="S">
<description>&lt;b&gt;Body Features: Case Material Polyphenylene Sulfide (PPS) | Case Color Black | Actuator Color White | Product Orientation Vertical | Configuration Features: Configuration (Pole-Throw) Single Pole - Single Throw | Number of Positions 8 | Number of Switches 8 | Contact Features: Contact Current Rating 1 AMP | PCB Contact Termination Area Plating Material Gold | Contact Underplating Material Nickel | Contact Base Material Copper Alloy | Switch Contact Plating Material Gold Flash | Switch Contact Plating Materia&lt;/b&gt;&lt;p&gt;
Source: &lt;a href="https://www.te.com/commerce/DocumentDelivery/DDEController?Action=srchrtrv&amp;DocNm=ADE_ADP_ADF_Datasheet&amp;DocType=Data Sheet&amp;DocLang=English&amp;PartCntxt=1825057-7&amp;DocFormat=pdf"&gt; Datasheet &lt;/a&gt;</description>
<gates>
<gate name="G$1" symbol="1825057-7" x="0" y="0"/>
</gates>
<devices>
<device name="" package="18250577">
<connects>
<connect gate="G$1" pin="A1" pad="A1"/>
<connect gate="G$1" pin="A2" pad="A2"/>
<connect gate="G$1" pin="A3" pad="A3"/>
<connect gate="G$1" pin="A4" pad="A4"/>
<connect gate="G$1" pin="A5" pad="A5"/>
<connect gate="G$1" pin="A6" pad="A6"/>
<connect gate="G$1" pin="A7" pad="A7"/>
<connect gate="G$1" pin="A8" pad="A8"/>
<connect gate="G$1" pin="B1" pad="B1"/>
<connect gate="G$1" pin="B2" pad="B2"/>
<connect gate="G$1" pin="B3" pad="B3"/>
<connect gate="G$1" pin="B4" pad="B4"/>
<connect gate="G$1" pin="B5" pad="B5"/>
<connect gate="G$1" pin="B6" pad="B6"/>
<connect gate="G$1" pin="B7" pad="B7"/>
<connect gate="G$1" pin="B8" pad="B8"/>
</connects>
<technologies>
<technology name="">
<attribute name="Manufacturer_Name" value="TE Connectivity" constant="no"/>
<attribute name="Manufacturer_Part_Number" value="1825057-7" constant="no"/>
<attribute name="Mouser_Part_Number" value="" constant="no"/>
<attribute name="Mouser_Price-Stock" value="" constant="no"/>
<attribute name="Arrow_Part_Number" value="1825057-7" constant="no"/>
<attribute name="Arrow_Price-Stock" value="https://www.arrow.com/en/products/1825057-7/te-connectivity" constant="no"/>
<attribute name="Description" value="Body Features: Case Material Polyphenylene Sulfide (PPS) | Case Color Black | Actuator Color White | Product Orientation Vertical | Configuration Features: Configuration (Pole-Throw) Single Pole - Single Throw | Number of Positions 8 | Number of Switches 8 | Contact Features: Contact Current Rating 1 AMP | PCB Contact Termination Area Plating Material Gold | Contact Underplating Material Nickel | Contact Base Material Copper Alloy | Switch Contact Plating Material Gold Flash | Switch Contact Plating Materia" constant="no"/>
<attribute name="Height" value="4.55mm" constant="no"/>
</technology>
</technologies>
</device>
</devices>
</deviceset>
</devicesets>
</library>
</drawing>
</eagle>
