(kicad_symbol_lib (version 20220914) (generator kicad_symbol_editor)
  (symbol "243-62010-15" (in_bom yes) (on_board yes)
    (property "Reference" "J" (at 0 41.91 0)
      (effects (font (size 1.27 1.27)))
    )
    (property "Value" "243-62010-15" (at 0 38.1 0)
      (effects (font (size 1.27 1.27)))
    )
    (property "Footprint" "" (at 17.78 -2.54 0)
      (effects (font (size 1.27 1.27)) hide)
    )
    (property "Datasheet" "" (at 17.78 -2.54 0)
      (effects (font (size 1.27 1.27)) hide)
    )
    (property "ki_locked" "" (at 0 0 0)
      (effects (font (size 1.27 1.27)))
    )
    (symbol "243-62010-15_0_1"
      (rectangle (start -7.62 35.56) (end 7.62 -35.56)
        (stroke (width 0) (type default))
        (fill (type none))
      )
    )
    (symbol "243-62010-15_1_1"
      (pin passive line (at -12.62 34.29 0) (length 5)
        (name "A1" (effects (font (size 1.27 1.27))))
        (number "A1" (effects (font (size 1.27 1.27))))
      )
      (pin passive line (at -12.62 11.43 0) (length 5)
        (name "A10" (effects (font (size 1.27 1.27))))
        (number "A10" (effects (font (size 1.27 1.27))))
      )
      (pin passive line (at -12.62 8.89 0) (length 5)
        (name "A11" (effects (font (size 1.27 1.27))))
        (number "A11" (effects (font (size 1.27 1.27))))
      )
      (pin passive line (at -12.62 6.35 0) (length 5)
        (name "A12" (effects (font (size 1.27 1.27))))
        (number "A12" (effects (font (size 1.27 1.27))))
      )
      (pin passive line (at -12.62 3.81 0) (length 5)
        (name "A13" (effects (font (size 1.27 1.27))))
        (number "A13" (effects (font (size 1.27 1.27))))
      )
      (pin passive line (at -12.7 1.27 0) (length 5)
        (name "A14" (effects (font (size 1.27 1.27))))
        (number "A14" (effects (font (size 1.27 1.27))))
      )
      (pin passive line (at -12.7 -1.27 0) (length 5)
        (name "A15" (effects (font (size 1.27 1.27))))
        (number "A15" (effects (font (size 1.27 1.27))))
      )
      (pin passive line (at -12.7 -3.81 0) (length 5)
        (name "A16" (effects (font (size 1.27 1.27))))
        (number "A16" (effects (font (size 1.27 1.27))))
      )
      (pin passive line (at -12.7 -6.35 0) (length 5)
        (name "A17" (effects (font (size 1.27 1.27))))
        (number "A17" (effects (font (size 1.27 1.27))))
      )
      (pin passive line (at -12.7 -8.89 0) (length 5)
        (name "A18" (effects (font (size 1.27 1.27))))
        (number "A18" (effects (font (size 1.27 1.27))))
      )
      (pin passive line (at -12.7 -11.43 0) (length 5)
        (name "A19" (effects (font (size 1.27 1.27))))
        (number "A19" (effects (font (size 1.27 1.27))))
      )
      (pin passive line (at -12.62 31.75 0) (length 5)
        (name "A2" (effects (font (size 1.27 1.27))))
        (number "A2" (effects (font (size 1.27 1.27))))
      )
      (pin passive line (at -12.7 -13.97 0) (length 5)
        (name "A20" (effects (font (size 1.27 1.27))))
        (number "A20" (effects (font (size 1.27 1.27))))
      )
      (pin passive line (at -12.7 -16.51 0) (length 5)
        (name "A21" (effects (font (size 1.27 1.27))))
        (number "A21" (effects (font (size 1.27 1.27))))
      )
      (pin passive line (at -12.7 -19.05 0) (length 5)
        (name "A22" (effects (font (size 1.27 1.27))))
        (number "A22" (effects (font (size 1.27 1.27))))
      )
      (pin passive line (at -12.62 29.21 0) (length 5)
        (name "A3" (effects (font (size 1.27 1.27))))
        (number "A3" (effects (font (size 1.27 1.27))))
      )
      (pin passive line (at -12.62 26.67 0) (length 5)
        (name "A4" (effects (font (size 1.27 1.27))))
        (number "A4" (effects (font (size 1.27 1.27))))
      )
      (pin passive line (at -12.62 24.13 0) (length 5)
        (name "A5" (effects (font (size 1.27 1.27))))
        (number "A5" (effects (font (size 1.27 1.27))))
      )
      (pin passive line (at -12.62 21.59 0) (length 5)
        (name "A6" (effects (font (size 1.27 1.27))))
        (number "A6" (effects (font (size 1.27 1.27))))
      )
      (pin passive line (at -12.62 19.05 0) (length 5)
        (name "A7" (effects (font (size 1.27 1.27))))
        (number "A7" (effects (font (size 1.27 1.27))))
      )
      (pin passive line (at -12.62 16.51 0) (length 5)
        (name "A8" (effects (font (size 1.27 1.27))))
        (number "A8" (effects (font (size 1.27 1.27))))
      )
      (pin passive line (at -12.62 13.97 0) (length 5)
        (name "A9" (effects (font (size 1.27 1.27))))
        (number "A9" (effects (font (size 1.27 1.27))))
      )
      (pin passive line (at -12.62 -21.59 0) (length 5)
        (name "B1" (effects (font (size 1.27 1.27))))
        (number "B1" (effects (font (size 1.27 1.27))))
      )
      (pin passive line (at 12.62 26.67 180) (length 5)
        (name "B10" (effects (font (size 1.27 1.27))))
        (number "B10" (effects (font (size 1.27 1.27))))
      )
      (pin passive line (at 12.62 24.13 180) (length 5)
        (name "B11" (effects (font (size 1.27 1.27))))
        (number "B11" (effects (font (size 1.27 1.27))))
      )
      (pin passive line (at 12.62 21.59 180) (length 5)
        (name "B12" (effects (font (size 1.27 1.27))))
        (number "B12" (effects (font (size 1.27 1.27))))
      )
      (pin passive line (at 12.62 19.05 180) (length 5)
        (name "B13" (effects (font (size 1.27 1.27))))
        (number "B13" (effects (font (size 1.27 1.27))))
      )
      (pin passive line (at 12.62 16.51 180) (length 5)
        (name "B14" (effects (font (size 1.27 1.27))))
        (number "B14" (effects (font (size 1.27 1.27))))
      )
      (pin passive line (at 12.62 13.97 180) (length 5)
        (name "B15" (effects (font (size 1.27 1.27))))
        (number "B15" (effects (font (size 1.27 1.27))))
      )
      (pin passive line (at 12.62 11.43 180) (length 5)
        (name "B16" (effects (font (size 1.27 1.27))))
        (number "B16" (effects (font (size 1.27 1.27))))
      )
      (pin passive line (at 12.62 8.89 180) (length 5)
        (name "B17" (effects (font (size 1.27 1.27))))
        (number "B17" (effects (font (size 1.27 1.27))))
      )
      (pin passive line (at 12.62 6.35 180) (length 5)
        (name "B18" (effects (font (size 1.27 1.27))))
        (number "B18" (effects (font (size 1.27 1.27))))
      )
      (pin passive line (at 12.62 3.81 180) (length 5)
        (name "B19" (effects (font (size 1.27 1.27))))
        (number "B19" (effects (font (size 1.27 1.27))))
      )
      (pin passive line (at -12.62 -24.13 0) (length 5)
        (name "B2" (effects (font (size 1.27 1.27))))
        (number "B2" (effects (font (size 1.27 1.27))))
      )
      (pin passive line (at 12.62 1.27 180) (length 5)
        (name "B20" (effects (font (size 1.27 1.27))))
        (number "B20" (effects (font (size 1.27 1.27))))
      )
      (pin passive line (at 12.62 -1.27 180) (length 5)
        (name "B21" (effects (font (size 1.27 1.27))))
        (number "B21" (effects (font (size 1.27 1.27))))
      )
      (pin passive line (at 12.62 -3.81 180) (length 5)
        (name "B22" (effects (font (size 1.27 1.27))))
        (number "B22" (effects (font (size 1.27 1.27))))
      )
      (pin passive line (at -12.62 -26.67 0) (length 5)
        (name "B3" (effects (font (size 1.27 1.27))))
        (number "B3" (effects (font (size 1.27 1.27))))
      )
      (pin passive line (at -12.62 -29.21 0) (length 5)
        (name "B4" (effects (font (size 1.27 1.27))))
        (number "B4" (effects (font (size 1.27 1.27))))
      )
      (pin passive line (at -12.62 -31.75 0) (length 5)
        (name "B5" (effects (font (size 1.27 1.27))))
        (number "B5" (effects (font (size 1.27 1.27))))
      )
      (pin passive line (at -12.62 -34.29 0) (length 5)
        (name "B6" (effects (font (size 1.27 1.27))))
        (number "B6" (effects (font (size 1.27 1.27))))
      )
      (pin passive line (at 12.62 34.29 180) (length 5)
        (name "B7" (effects (font (size 1.27 1.27))))
        (number "B7" (effects (font (size 1.27 1.27))))
      )
      (pin passive line (at 12.62 31.75 180) (length 5)
        (name "B8" (effects (font (size 1.27 1.27))))
        (number "B8" (effects (font (size 1.27 1.27))))
      )
      (pin passive line (at 12.62 29.21 180) (length 5)
        (name "B9" (effects (font (size 1.27 1.27))))
        (number "B9" (effects (font (size 1.27 1.27))))
      )
      (pin passive line (at 12.62 -6.35 180) (length 5)
        (name "C1" (effects (font (size 1.27 1.27))))
        (number "C1" (effects (font (size 1.27 1.27))))
      )
      (pin passive line (at 12.62 -29.21 180) (length 5)
        (name "C10" (effects (font (size 1.27 1.27))))
        (number "C10" (effects (font (size 1.27 1.27))))
      )
      (pin passive line (at 12.62 -31.75 180) (length 5)
        (name "C11" (effects (font (size 1.27 1.27))))
        (number "C11" (effects (font (size 1.27 1.27))))
      )
      (pin passive line (at 12.62 -8.89 180) (length 5)
        (name "C2" (effects (font (size 1.27 1.27))))
        (number "C2" (effects (font (size 1.27 1.27))))
      )
      (pin passive line (at 12.62 -11.43 180) (length 5)
        (name "C3" (effects (font (size 1.27 1.27))))
        (number "C3" (effects (font (size 1.27 1.27))))
      )
      (pin passive line (at 12.62 -13.97 180) (length 5)
        (name "C4" (effects (font (size 1.27 1.27))))
        (number "C4" (effects (font (size 1.27 1.27))))
      )
      (pin passive line (at 12.62 -16.51 180) (length 5)
        (name "C5" (effects (font (size 1.27 1.27))))
        (number "C5" (effects (font (size 1.27 1.27))))
      )
      (pin passive line (at 12.62 -19.05 180) (length 5)
        (name "C6" (effects (font (size 1.27 1.27))))
        (number "C6" (effects (font (size 1.27 1.27))))
      )
      (pin passive line (at 12.62 -21.59 180) (length 5)
        (name "C7" (effects (font (size 1.27 1.27))))
        (number "C7" (effects (font (size 1.27 1.27))))
      )
      (pin passive line (at 12.62 -24.13 180) (length 5)
        (name "C8" (effects (font (size 1.27 1.27))))
        (number "C8" (effects (font (size 1.27 1.27))))
      )
      (pin passive line (at 12.62 -26.67 180) (length 5)
        (name "C9" (effects (font (size 1.27 1.27))))
        (number "C9" (effects (font (size 1.27 1.27))))
      )
    )
    (symbol "243-62010-15_2_1"
      (pin passive line (at -12.62 34.29 0) (length 5)
        (name "C12" (effects (font (size 1.27 1.27))))
        (number "C12" (effects (font (size 1.27 1.27))))
      )
      (pin passive line (at -12.62 31.75 0) (length 5)
        (name "C13" (effects (font (size 1.27 1.27))))
        (number "C13" (effects (font (size 1.27 1.27))))
      )
      (pin passive line (at -12.62 29.21 0) (length 5)
        (name "C14" (effects (font (size 1.27 1.27))))
        (number "C14" (effects (font (size 1.27 1.27))))
      )
      (pin passive line (at -12.62 26.67 0) (length 5)
        (name "C15" (effects (font (size 1.27 1.27))))
        (number "C15" (effects (font (size 1.27 1.27))))
      )
      (pin passive line (at -12.62 24.13 0) (length 5)
        (name "C16" (effects (font (size 1.27 1.27))))
        (number "C16" (effects (font (size 1.27 1.27))))
      )
      (pin passive line (at -12.62 21.59 0) (length 5)
        (name "C17" (effects (font (size 1.27 1.27))))
        (number "C17" (effects (font (size 1.27 1.27))))
      )
      (pin passive line (at -12.62 19.05 0) (length 5)
        (name "C18" (effects (font (size 1.27 1.27))))
        (number "C18" (effects (font (size 1.27 1.27))))
      )
      (pin passive line (at -12.62 16.51 0) (length 5)
        (name "C19" (effects (font (size 1.27 1.27))))
        (number "C19" (effects (font (size 1.27 1.27))))
      )
      (pin passive line (at -12.62 13.97 0) (length 5)
        (name "C20" (effects (font (size 1.27 1.27))))
        (number "C20" (effects (font (size 1.27 1.27))))
      )
      (pin passive line (at -12.62 11.43 0) (length 5)
        (name "C21" (effects (font (size 1.27 1.27))))
        (number "C21" (effects (font (size 1.27 1.27))))
      )
      (pin passive line (at -12.62 8.89 0) (length 5)
        (name "C22" (effects (font (size 1.27 1.27))))
        (number "C22" (effects (font (size 1.27 1.27))))
      )
      (pin passive line (at -12.62 6.35 0) (length 5)
        (name "D1" (effects (font (size 1.27 1.27))))
        (number "D1" (effects (font (size 1.27 1.27))))
      )
      (pin passive line (at -12.62 -16.51 0) (length 5)
        (name "D10" (effects (font (size 1.27 1.27))))
        (number "D10" (effects (font (size 1.27 1.27))))
      )
      (pin passive line (at -12.62 -19.05 0) (length 5)
        (name "D11" (effects (font (size 1.27 1.27))))
        (number "D11" (effects (font (size 1.27 1.27))))
      )
      (pin passive line (at -12.62 -21.59 0) (length 5)
        (name "D12" (effects (font (size 1.27 1.27))))
        (number "D12" (effects (font (size 1.27 1.27))))
      )
      (pin passive line (at -12.62 -24.13 0) (length 5)
        (name "D13" (effects (font (size 1.27 1.27))))
        (number "D13" (effects (font (size 1.27 1.27))))
      )
      (pin passive line (at -12.62 -26.67 0) (length 5)
        (name "D14" (effects (font (size 1.27 1.27))))
        (number "D14" (effects (font (size 1.27 1.27))))
      )
      (pin passive line (at -12.62 -29.21 0) (length 5)
        (name "D15" (effects (font (size 1.27 1.27))))
        (number "D15" (effects (font (size 1.27 1.27))))
      )
      (pin passive line (at -12.62 -31.75 0) (length 5)
        (name "D16" (effects (font (size 1.27 1.27))))
        (number "D16" (effects (font (size 1.27 1.27))))
      )
      (pin passive line (at -12.62 -34.29 0) (length 5)
        (name "D17" (effects (font (size 1.27 1.27))))
        (number "D17" (effects (font (size 1.27 1.27))))
      )
      (pin passive line (at 12.62 34.29 180) (length 5)
        (name "D18" (effects (font (size 1.27 1.27))))
        (number "D18" (effects (font (size 1.27 1.27))))
      )
      (pin passive line (at 12.62 31.75 180) (length 5)
        (name "D19" (effects (font (size 1.27 1.27))))
        (number "D19" (effects (font (size 1.27 1.27))))
      )
      (pin passive line (at -12.62 3.81 0) (length 5)
        (name "D2" (effects (font (size 1.27 1.27))))
        (number "D2" (effects (font (size 1.27 1.27))))
      )
      (pin passive line (at 12.62 29.21 180) (length 5)
        (name "D20" (effects (font (size 1.27 1.27))))
        (number "D20" (effects (font (size 1.27 1.27))))
      )
      (pin passive line (at 12.62 26.67 180) (length 5)
        (name "D21" (effects (font (size 1.27 1.27))))
        (number "D21" (effects (font (size 1.27 1.27))))
      )
      (pin passive line (at 12.62 24.13 180) (length 5)
        (name "D22" (effects (font (size 1.27 1.27))))
        (number "D22" (effects (font (size 1.27 1.27))))
      )
      (pin passive line (at -12.62 1.27 0) (length 5)
        (name "D3" (effects (font (size 1.27 1.27))))
        (number "D3" (effects (font (size 1.27 1.27))))
      )
      (pin passive line (at -12.62 -1.27 0) (length 5)
        (name "D4" (effects (font (size 1.27 1.27))))
        (number "D4" (effects (font (size 1.27 1.27))))
      )
      (pin passive line (at -12.62 -3.81 0) (length 5)
        (name "D5" (effects (font (size 1.27 1.27))))
        (number "D5" (effects (font (size 1.27 1.27))))
      )
      (pin passive line (at -12.62 -6.35 0) (length 5)
        (name "D6" (effects (font (size 1.27 1.27))))
        (number "D6" (effects (font (size 1.27 1.27))))
      )
      (pin passive line (at -12.62 -8.89 0) (length 5)
        (name "D7" (effects (font (size 1.27 1.27))))
        (number "D7" (effects (font (size 1.27 1.27))))
      )
      (pin passive line (at -12.62 -11.43 0) (length 5)
        (name "D8" (effects (font (size 1.27 1.27))))
        (number "D8" (effects (font (size 1.27 1.27))))
      )
      (pin passive line (at -12.62 -13.97 0) (length 5)
        (name "D9" (effects (font (size 1.27 1.27))))
        (number "D9" (effects (font (size 1.27 1.27))))
      )
      (pin passive line (at 12.62 21.59 180) (length 5)
        (name "E1" (effects (font (size 1.27 1.27))))
        (number "E1" (effects (font (size 1.27 1.27))))
      )
      (pin passive line (at 12.62 -1.27 180) (length 5)
        (name "E10" (effects (font (size 1.27 1.27))))
        (number "E10" (effects (font (size 1.27 1.27))))
      )
      (pin passive line (at 12.62 -3.81 180) (length 5)
        (name "E11" (effects (font (size 1.27 1.27))))
        (number "E11" (effects (font (size 1.27 1.27))))
      )
      (pin passive line (at 12.62 -6.35 180) (length 5)
        (name "E12" (effects (font (size 1.27 1.27))))
        (number "E12" (effects (font (size 1.27 1.27))))
      )
      (pin passive line (at 12.62 -8.89 180) (length 5)
        (name "E13" (effects (font (size 1.27 1.27))))
        (number "E13" (effects (font (size 1.27 1.27))))
      )
      (pin passive line (at 12.62 -11.43 180) (length 5)
        (name "E14" (effects (font (size 1.27 1.27))))
        (number "E14" (effects (font (size 1.27 1.27))))
      )
      (pin passive line (at 12.62 -13.97 180) (length 5)
        (name "E15" (effects (font (size 1.27 1.27))))
        (number "E15" (effects (font (size 1.27 1.27))))
      )
      (pin passive line (at 12.62 -16.51 180) (length 5)
        (name "E16" (effects (font (size 1.27 1.27))))
        (number "E16" (effects (font (size 1.27 1.27))))
      )
      (pin passive line (at 12.62 -19.05 180) (length 5)
        (name "E17" (effects (font (size 1.27 1.27))))
        (number "E17" (effects (font (size 1.27 1.27))))
      )
      (pin passive line (at 12.62 -21.59 180) (length 5)
        (name "E18" (effects (font (size 1.27 1.27))))
        (number "E18" (effects (font (size 1.27 1.27))))
      )
      (pin passive line (at 12.62 -24.13 180) (length 5)
        (name "E19" (effects (font (size 1.27 1.27))))
        (number "E19" (effects (font (size 1.27 1.27))))
      )
      (pin passive line (at 12.62 19.05 180) (length 5)
        (name "E2" (effects (font (size 1.27 1.27))))
        (number "E2" (effects (font (size 1.27 1.27))))
      )
      (pin passive line (at 12.62 -26.67 180) (length 5)
        (name "E20" (effects (font (size 1.27 1.27))))
        (number "E20" (effects (font (size 1.27 1.27))))
      )
      (pin passive line (at 12.62 -29.21 180) (length 5)
        (name "E21" (effects (font (size 1.27 1.27))))
        (number "E21" (effects (font (size 1.27 1.27))))
      )
      (pin passive line (at 12.62 -31.75 180) (length 5)
        (name "E22" (effects (font (size 1.27 1.27))))
        (number "E22" (effects (font (size 1.27 1.27))))
      )
      (pin passive line (at 12.62 16.51 180) (length 5)
        (name "E3" (effects (font (size 1.27 1.27))))
        (number "E3" (effects (font (size 1.27 1.27))))
      )
      (pin passive line (at 12.62 13.97 180) (length 5)
        (name "E4" (effects (font (size 1.27 1.27))))
        (number "E4" (effects (font (size 1.27 1.27))))
      )
      (pin passive line (at 12.62 11.43 180) (length 5)
        (name "E5" (effects (font (size 1.27 1.27))))
        (number "E5" (effects (font (size 1.27 1.27))))
      )
      (pin passive line (at 12.62 8.89 180) (length 5)
        (name "E6" (effects (font (size 1.27 1.27))))
        (number "E6" (effects (font (size 1.27 1.27))))
      )
      (pin passive line (at 12.62 6.35 180) (length 5)
        (name "E7" (effects (font (size 1.27 1.27))))
        (number "E7" (effects (font (size 1.27 1.27))))
      )
      (pin passive line (at 12.62 3.81 180) (length 5)
        (name "E8" (effects (font (size 1.27 1.27))))
        (number "E8" (effects (font (size 1.27 1.27))))
      )
      (pin passive line (at 12.62 1.27 180) (length 5)
        (name "E9" (effects (font (size 1.27 1.27))))
        (number "E9" (effects (font (size 1.27 1.27))))
      )
    )
  )
)
